[
    {
      "id": 13,
      "title": "Çok Satanlar",
      "href": "/best-seller"
    },
    {
      "id": 14,
      "title": "Günün Fırsatları",
      "href": "/best-opportunity"
    },
    {
      "id": 15,
      "title": "Elektronik",
      "href": "/electronics"
    },
    {
      "id": 16,
      "title": "Bilgisayar",
      "href": "/"

    },
    {
      "id": 17,
      "title": "Kitaplar",
      "href": "/"
    },
    {
      "id": 18,
      "title": "Moda",
      "href": "/"
    },
    {
      "id": 19,
      "title": "Demo Link Demo Link",
      "href": "/"
    },
    {
      "id": 20,
      "title": "Demo Link Demo Link",
      "href": "/"
    },
    {
      "id": 21,
      "title": "Demo Link Demo Link",
      "href": "/"
    },
    {
      "id": 22,
      "title": "Demo Link Demo Link",
      "href": "/"
    },
    {
      "id": 23,
      "title": "Demo Link Demo Link",
      "href": "/"
    },
    {
      "id": 24,
      "title": "Demo Link Demo Link",
      "href": "/"
    }
  ]
  