[
    {
      "id": 1,
      "title": "Siparişlerim",
      "href": "/",
      "img": "/images/order.png"
    },
    {
      "id": 2,
      "title": "İadeler ve Para İadeleri",
      "href": "/",
      "img": "/images/refound.png"
    },
    {
      "id": 3,
      "title": "Ödeme Seçenekleri",
      "href": "/",
      "img": "/images/payments.png"
    },
    {
      "id": 4,
      "title": "Prime Üyeliği",
      "href": "/",
      "img": "/images/prime.png"
    },
    {
      "id": 5,
      "title": "Hesabım",
      "href": "/",
      "img": "/images/account.png"
    },
    {
      "id": 6,
      "title": "Şüpheli İşlem",
      "href": "/",
      "img": "/images/email.png"
    },
    {
      "id": 7,
      "title": "Hediye Kartları",
      "href": "/",
      "img": "/images/gift.png"
    },
    {
      "id": 8,
      "title": "İletişim",
      "href": "/",
      "img": "/images/commin.png"
    }
  ]
  