[
    {
      "id": 1,
      "title": "CALVIN KLEIN ERKEK MONT CM052956-BLACK",
      "subTitle": "Contrary to popular belief, Lorem Ipsum is not simply random text. It has roots in a piece of classical Latin literature from 45 BC, making it over 2000 years old. Richard McClintock, a Latin professor at Hampden-Sydney College in Virginia,",
      "image": "/images/man.jpg",
      "alt": "Contrary to popular belief, Lorem Ipsum is not simply random text.",
      "direction": "row"
    },
    {
      "id": 2,
      "title": "En çok satan erkek ayakkabıları",
      "subTitle": "Save your data and watch all your favourites offline.",
      "image": "/images/misc/home-mobile.jpg",
      "alt": "Watch on mobile",
      "direction": "row-reverse"
    },
    {
      "id": 3,
      "title": "Günün Fırsatları",
      "subTitle": "Stream unlimited films and TV programmes on your phone, tablet, laptop and TV without paying more.",
      "image": "/images/misc/home-imac.jpg",
      "alt": "Money Heist on Netflix",
      "direction": "row"
    },
    {
      "id": 4,
      "title": "Spor Ürünleri",
      "subTitle": "Stream unlimited films and TV programmes on your phone, tablet, laptop and TV without paying more.",
      "image": "/images/misc/home-imac.jpg",
      "alt": "Money Heist on Netflix",
      "direction": "row"
    },
    {
      "id": 5,
      "title": "Kitaplar",
      "subTitle": "Stream unlimited films and TV programmes on your phone, tablet, laptop and TV without paying more.",
      "image": "/images/misc/home-imac.jpg",
      "alt": "Money Heist on Netflix",
      "direction": "row"
    }
  ]
  