[
    {
      "id": 1,
      "title": "Kahve Makinası",
      "href": "/",
      "img": "/images/coffe.jpg"
    },
    {
      "id": 2,
      "title": "Masa Üstü Bilgisayar",
      "href": "/",
      "img": "/images/desktop.jpg"
    },
    {
      "id": 3,
      "title": "Kitaplar",
      "href": "/",
      "img": "/images/books.jpg"
    },
    {
      "id": 4,
      "title": "Tıraş Makinası",
      "href": "/",
      "img": "/images/haircut.jpg"
    }
  ]